Run UMAP analysis and plot the results — hd_auto_umap • HDAnalyzeR
…
    Value

A list with the UMAP results and UMAP plots.

    Examples

# Create the HDAnalyzeR object providing the data and metadata
hd_object <- hd_initialize(example_data, example_metadata)

# Run the UMAP analysis
hd_auto_umap(hd_object, plot_color = "Disease", plot_palette = "cancers12")
#> $umap_res
#> # A tibble: 586 × 3
#>    DAid     UMAP1  UMAP2
#>    <chr>    <dbl>  <dbl>
#>  1 DA00001 -2.62   0.384
#>  2 DA00002  1.99   1.73 
#>  3 DA00003 -1.69  -1.87 
#>  4 DA00004 -2.17  -1.74 
#>  5 DA00005 -2.83   0.315
#>  6 DA00006  1.54  -0.733
#>  7 DA00007 -3.49  -0.886
#>  8 DA00008  1.54  -1.08 
#>  9 DA00009 -0.655  0.278
#> 10 DA00010  1.93   1.53 
#> # ℹ 576 more rows
…
