…
This is the slowest and more complex imputation method. If KNN works
fine, it is recommended to use it instead of `missForest`. In case of
large datasets, it is recommended to parallelize the imputation.
However, the user must have the `doParallel` package installed and
register a cluster before running the function. An example of how to
parallelize the imputation is provided in the examples section.

## Examples

``` r
# Create the HDAnalyzeR object providing the data and metadata
hd_object <- hd_initialize(example_data, example_metadata)
hd_object$data
#> # A tibble: 586 × 101
#>    DAid    AARSD1   ABL1  ACAA1    ACAN    ACE2  ACOX1   ACP5    ACP6  ACTA2
#>    <chr>    <dbl>  <dbl>  <dbl>   <dbl>   <dbl>  <dbl>  <dbl>   <dbl>  <dbl>
#>  1 DA00001   3.39  2.76   1.71   0.0333  1.76   -0.919 1.54    2.15    2.81 
#>  2 DA00002   1.42  1.25  -0.816 -0.459   0.826  -0.902 0.647   1.30    0.798
#>  3 DA00003  NA    NA     NA      0.989  NA       0.330 1.37   NA      NA    
#>  4 DA00004   3.41  3.38   1.69  NA       1.52   NA     0.841   0.582   1.70 
#>  5 DA00005   5.01  5.05   0.128  0.401  -0.933  -0.584 0.0265  1.16    2.73 
#>  6 DA00006   6.83  1.18  -1.74  -0.156   1.53   -0.721 0.620   0.527   0.772
#>  7 DA00007  NA    NA      3.96   0.682   3.14    2.62  1.47    2.25    2.01 
#>  8 DA00008   2.78  0.812 -0.552  0.982  -0.101  -0.304 0.376  -0.826   1.52 
#>  9 DA00009   4.39  3.34  -0.452 -0.868   0.395   1.71  1.49   -0.0285  0.200
#> 10 DA00010   1.83  1.21  -0.912 -1.04   -0.0918 -0.304 1.69    0.0920  2.04 
#> # ℹ 576 more rows
#> # ℹ 91 more variables: ACTN4 <dbl>, ACY1 <dbl>, ADA <dbl>, ADA2 <dbl>,
#> #   ADAM15 <dbl>, ADAM23 <dbl>, ADAM8 <dbl>, ADAMTS13 <dbl>, ADAMTS15 <dbl>,
#> #   ADAMTS16 <dbl>, ADAMTS8 <dbl>, ADCYAP1R1 <dbl>, ADGRE2 <dbl>, ADGRE5 <dbl>,
#> #   ADGRG1 <dbl>, ADGRG2 <dbl>, ADH4 <dbl>, ADM <dbl>, AGER <dbl>, AGR2 <dbl>,
#> #   AGR3 <dbl>, AGRN <dbl>, AGRP <dbl>, AGXT <dbl>, AHCY <dbl>, AHSP <dbl>,
#> #   AIF1 <dbl>, AIFM1 <dbl>, AK1 <dbl>, AKR1B1 <dbl>, AKR1C4 <dbl>, …
# Data after imputation
res <- hd_impute_missForest(hd_object, maxiter = 1, ntree = 50)
#> c("AARSD1", "ABL1", "ACAA1", "ACAN", "ACE2", "ACOX1", "ACP6", "ACTA2", "ACTN4", "ACY1", "ADA", "ADA2", "ADAM15", "ADAM23", "ADAMTS15", "ADAMTS16", "ADAMTS8", "ADCYAP1R1", "ADGRE2", "ADGRG1", "ADGRG2", "ADH4", "ADM", "AGER", "AGR2", "AGR3", "AGRN", "AGRP", "AGXT", "AHCY", "AHSP", "AIF1", "AIFM1", "AK1", "AKR1B1", "AKR1C4", "AKT1S1", "AKT3", "ALDH1A1", "ALDH3A1", "ALPP", "AMBN", "AMBP", "AMFR", "AMIGO2", "AMN", "ANG", "ANGPT1", "ANGPT2", "ANGPTL1", "ANGPTL2", "ANGPTL3", "ANGPTL4", "ANGPTL7", "ANKRD54", 
#> "ANPEP", "ANXA10", "ANXA11", "ANXA4", "ANXA5", "AOC1", "AOC3", "APBB1IP", "APEX1", "APLP1", "APOH", "APOM", "APP", "AREG", "ARG1", "ARHGAP1", "ARHGAP25", "ARHGEF12", "ARID4B", "ARNT", "ARSA", "ARSB", "ART3", "ARTN", "ATF2", "ATG4A", "ATOX1", "ATP5IF1", "ATP5PO", "ATP6AP2", "ATP6V1D", "ATP6V1F", "ATXN10", "AXIN1", "AXL", "B4GALT1")c(AARSD1 = 5.80204778156997, ABL1 = 5.80204778156997, ACAA1 = 5.2901023890785, ACAN = 3.92491467576792, ACE2 = 6.14334470989761, ACOX1 = 3.92491467576792, ACP6 = 2.21843003412969, ACTA2 = 6.14334470989761, ACTN4 = 6.14334470989761, ACY1 = 3.92491467576792, ADA = 1.36518771331058, ADA2 = 4.09556313993174, ADAM15 = 6.14334470989761, ADAM23 = 1.36518771331058, ADAMTS15 = 5.80204778156997, ADAMTS16 = 6.14334470989761, ADAMTS8 = 4.09556313993174, ADCYAP1R1 = 5.2901023890785, ADGRE2 = 3.41296928327645, 
#> ADGRG1 = 5.80204778156997, ADGRG2 = 3.92491467576792, ADH4 = 6.14334470989761, ADM = 2.21843003412969, AGER = 3.41296928327645, AGR2 = 5.97269624573379, AGR3 = 5.2901023890785, AGRN = 3.41296928327645, AGRP = 1.36518771331058, AGXT = 3.92491467576792, AHCY = 3.92491467576792, AHSP = 3.41296928327645, AIF1 = 5.2901023890785, AIFM1 = 5.80204778156997, AK1 = 3.92491467576792, AKR1B1 = 5.2901023890785, AKR1C4 = 6.14334470989761, AKT1S1 = 5.97269624573379, AKT3 = 5.2901023890785, ALDH1A1 = 3.41296928327645, 
#> ALDH3A1 = 4.94880546075085, ALPP = 5.80204778156997, AMBN = 6.14334470989761, AMBP = 2.21843003412969, AMFR = 5.97269624573379, AMIGO2 = 5.80204778156997, AMN = 6.14334470989761, ANG = 4.09556313993174, ANGPT1 = 3.41296928327645, ANGPT2 = 2.21843003412969, ANGPTL1 = 3.92491467576792, ANGPTL2 = 3.41296928327645, ANGPTL3 = 4.09556313993174, ANGPTL4 = 3.41296928327645, ANGPTL7 = 2.21843003412969, ANKRD54 = 5.2901023890785, ANPEP = 4.09556313993174, ANXA10 = 5.97269624573379, ANXA11 = 4.94880546075085, 
#> ANXA4 = 3.92491467576792, ANXA5 = 5.97269624573379, AOC1 = 6.14334470989761, AOC3 = 4.09556313993174, APBB1IP = 5.80204778156997, APEX1 = 2.21843003412969, APLP1 = 3.92491467576792, APOH = 3.41296928327645, APOM = 4.09556313993174, APP = 3.41296928327645, AREG = 5.80204778156997, ARG1 = 2.21843003412969, ARHGAP1 = 5.2901023890785, ARHGAP25 = 5.2901023890785, ARHGEF12 = 4.94880546075085, ARID4B = 5.97269624573379, ARNT = 6.14334470989761, ARSA = 3.41296928327645, ARSB = 5.80204778156997, ART3 = 4.09556313993174, 
#> ARTN = 6.14334470989761, ATF2 = 5.97269624573379, ATG4A = 5.2901023890785, ATOX1 = 4.09556313993174, ATP5IF1 = 3.41296928327645, ATP5PO = 5.97269624573379, ATP6AP2 = 5.2901023890785, ATP6V1D = 5.80204778156997, ATP6V1F = 5.97269624573379, ATXN10 = 5.97269624573379, AXIN1 = 4.94880546075085, AXL = 4.09556313993174, B4GALT1 = 3.41296928327645)
#>   missForest iteration 1 in progress...done!
#>     estimated error(s): 0.615834 
#>     difference(s): 0.003528261 
#>     time: 6.228 seconds
#> 
res$data
#> # A tibble: 586 × 101
#>    DAid  AARSD1  ABL1  ACAA1    ACAN    ACE2  ACOX1   ACP5    ACP6 ACTA2   ACTN4
#>    <chr>  <dbl> <dbl>  <dbl>   <dbl>   <dbl>  <dbl>  <dbl>   <dbl> <dbl>   <dbl>
#>  1 DA00…   3.39 2.76   1.71   0.0333  1.76   -0.919 1.54    2.15   2.81   0.742 
#>  2 DA00…   1.42 1.25  -0.816 -0.459   0.826  -0.902 0.647   1.30   0.798 -0.0659
#>  3 DA00…   3.38 2.35   1.12   0.989   0.513   0.330 1.37    1.11   1.43   0.397 
#>  4 DA00…   3.41 3.38   1.69   0.460   1.52    1.18  0.841   0.582  1.70   0.108 
#>  5 DA00…   5.01 5.05   0.128  0.401  -0.933  -0.584 0.0265  1.16   2.73   0.350 
#>  6 DA00…   6.83 1.18  -1.74  -0.156   1.53   -0.721 0.620   0.527  0.772  0.307 
#>  7 DA00…   4.11 3.78   3.96   0.682   3.14    2.62  1.47    2.25   2.01   0.170 
#>  8 DA00…   2.78 0.812 -0.552  0.982  -0.101  -0.304 0.376  -0.826  1.52  -0.597 
#>  9 DA00…   4.39 3.34  -0.452 -0.868   0.395   1.71  1.49   -0.0285 0.200 -0.532 
#> 10 DA00…   1.83 1.21  -0.912 -1.04   -0.0918 -0.304 1.69    0.0920 2.04   0.501 
#> # ℹ 576 more rows
#> # ℹ 90 more variables: ACY1 <dbl>, ADA <dbl>, ADA2 <dbl>, ADAM15 <dbl>,
#> #   ADAM23 <dbl>, ADAM8 <dbl>, ADAMTS13 <dbl>, ADAMTS15 <dbl>, ADAMTS16 <dbl>,
#> #   ADAMTS8 <dbl>, ADCYAP1R1 <dbl>, ADGRE2 <dbl>, ADGRE5 <dbl>, ADGRG1 <dbl>,
#> #   ADGRG2 <dbl>, ADH4 <dbl>, ADM <dbl>, AGER <dbl>, AGR2 <dbl>, AGR3 <dbl>,
#> #   AGRN <dbl>, AGRP <dbl>, AGXT <dbl>, AHCY <dbl>, AHSP <dbl>, AIF1 <dbl>,
#> #   AIFM1 <dbl>, AK1 <dbl>, AKR1B1 <dbl>, AKR1C4 <dbl>, AKT1S1 <dbl>, …
…
