Logistic regression model pipeline — hd_model_lr • HDAnalyzeR
…
# Run the logistic regression model pipeline
hd_model_lr(hd_split,
            variable = "Disease",
            case = "AML",
            palette = "cancers12")
#> The groups in the train set are balanced. If you do not want to balance the groups, set `balance_groups = FALSE`.
#> Tuning logistic regression model...
#> Evaluating the model...
#> Generating visualizations...
#> $train_data
#> # A tibble: 76 × 8
#>    DAid    Disease AARSD1  ACAA1  ACOX1    ADA   Age Sex  
#>    <chr>   <fct>    <dbl>  <dbl>  <dbl>  <dbl> <dbl> <chr>
#>  1 DA00003 1        NA    NA      0.330  0.952    61 F    
#>  2 DA00004 1         3.41  1.69  NA      2.69     54 M    
#>  3 DA00005 1         5.01  0.128 -0.584  3.75     57 F    
#>  4 DA00006 1         6.83 -1.74  -0.721  2.03     86 M    
#>  5 DA00007 1        NA     3.96   2.62   3.99     85 F    
#>  6 DA00008 1         2.78 -0.552 -0.304  2.83     88 F    
#>  7 DA00010 1         1.83 -0.912 -0.304 -0.448    48 M    
#>  8 DA00011 1         3.48  3.50   1.26   2.42     54 F    
#>  9 DA00012 1         4.31 -1.44  -0.361  0.725    78 F    
#> 10 DA00013 1         1.31  1.11  -1.35   1.13     81 M    
#> # ℹ 66 more rows
#> 
#> $test_data
#> # A tibble: 147 × 8
#>    DAid    Disease AARSD1  ACAA1   ACOX1    ADA   Age Sex  
#>    <chr>   <fct>    <dbl>  <dbl>   <dbl>  <dbl> <dbl> <chr>
#>  1 DA00001 1        3.39   1.71  -0.919  5.39      42 F    
#>  2 DA00002 1        1.42  -0.816 -0.902  0.0114    69 M    
#>  3 DA00009 1        4.39  -0.452  1.71   3.61      80 M    
#>  4 DA00015 1        3.31  NA      0.687  4.11      47 M    
#>  5 DA00017 1        1.46  -2.73   0.0234 1.58      44 M    
#>  6 DA00018 1        2.62   0.537  0.290  1.86      75 M    
#>  7 DA00028 1        2.47  -0.486 NA      3.97      78 F    
#>  8 DA00032 1        3.62  -1.34   1.53   2.96      62 M    
#>  9 DA00035 1        4.39   0.454  0.116  2.82      59 F    
#> 10 DA00044 1        0.964  1.55   0.164  0.836     72 F    
#> # ℹ 137 more rows
…
