…
# Run the regularized regression model pipeline
hd_model_rreg(hd_split,
              variable = "Disease",
              case = "AML",
              grid_size = 5,
              palette = "cancers12",
              verbose = FALSE)
#> The groups in the train set are balanced. If you do not want to balance the groups, set `balance_groups = FALSE`.
#> Loaded glmnet 4.1-10
#> $train_data
#> # A tibble: 76 × 102
#>    DAid    Disease AARSD1   ABL1  ACAA1   ACAN    ACE2  ACOX1    ACP5    ACP6
#>    <chr>   <fct>    <dbl>  <dbl>  <dbl>  <dbl>   <dbl>  <dbl>   <dbl>   <dbl>
#>  1 DA00003 1        NA    NA     NA      0.989 NA       0.330  1.37   NA     
#>  2 DA00004 1         3.41  3.38   1.69  NA      1.52   NA      0.841   0.582 
#>  3 DA00005 1         5.01  5.05   0.128  0.401 -0.933  -0.584  0.0265  1.16  
#>  4 DA00006 1         6.83  1.18  -1.74  -0.156  1.53   -0.721  0.620   0.527 
#>  5 DA00007 1        NA    NA      3.96   0.682  3.14    2.62   1.47    2.25  
#>  6 DA00008 1         2.78  0.812 -0.552  0.982 -0.101  -0.304  0.376  -0.826 
#>  7 DA00010 1         1.83  1.21  -0.912 -1.04  -0.0918 -0.304  1.69    0.0920
#>  8 DA00011 1         3.48  4.96   3.50  -0.338  4.48    1.26   2.18    1.62  
#>  9 DA00012 1         4.31  0.710 -1.44  -0.218 -0.469  -0.361 -0.0714 -1.30  
#> 10 DA00013 1         1.31  2.52   1.11   0.997  4.56   -1.35   0.833   2.33  
#> # ℹ 66 more rows
#> # ℹ 92 more variables: ACTA2 <dbl>, ACTN4 <dbl>, ACY1 <dbl>, ADA <dbl>,
#> #   ADA2 <dbl>, ADAM15 <dbl>, ADAM23 <dbl>, ADAM8 <dbl>, ADAMTS13 <dbl>,
#> #   ADAMTS15 <dbl>, ADAMTS16 <dbl>, ADAMTS8 <dbl>, ADCYAP1R1 <dbl>,
#> #   ADGRE2 <dbl>, ADGRE5 <dbl>, ADGRG1 <dbl>, ADGRG2 <dbl>, ADH4 <dbl>,
#> #   ADM <dbl>, AGER <dbl>, AGR2 <dbl>, AGR3 <dbl>, AGRN <dbl>, AGRP <dbl>,
#> #   AGXT <dbl>, AHCY <dbl>, AHSP <dbl>, AIF1 <dbl>, AIFM1 <dbl>, AK1 <dbl>, …
#> 
#> $test_data
#> # A tibble: 147 × 102
#>    DAid   Disease AARSD1  ABL1  ACAA1    ACAN  ACE2   ACOX1   ACP5    ACP6 ACTA2
#>    <chr>  <fct>    <dbl> <dbl>  <dbl>   <dbl> <dbl>   <dbl>  <dbl>   <dbl> <dbl>
#>  1 DA000… 1        3.39  2.76   1.71   0.0333 1.76  -0.919   1.54   2.15   2.81 
#>  2 DA000… 1        1.42  1.25  -0.816 -0.459  0.826 -0.902   0.647  1.30   0.798
#>  3 DA000… 1        4.39  3.34  -0.452 -0.868  0.395  1.71    1.49  -0.0285 0.200
#>  4 DA000… 1        3.31  1.90  NA     -0.926  0.408  0.687   1.03   0.612  2.19 
#>  5 DA000… 1        1.46  0.832 -2.73  -0.371  2.27   0.0234  0.144  0.826  1.98 
#>  6 DA000… 1        2.62  2.48   0.537 -0.215  1.82   0.290   1.27   1.11   0.206
#>  7 DA000… 1        2.47  2.16  -0.486 NA      0.386 NA       1.38   0.536  1.86 
#>  8 DA000… 1        3.62  3.06  -1.34   0.965  1.05   1.53    0.152 -0.124  2.81 
#>  9 DA000… 1        4.39  3.31   0.454  0.290  2.68   0.116  -1.32   0.945  2.14 
#> 10 DA000… 1        0.964 2.94   1.55   1.67   2.50   0.164   1.83   1.46   3.03 
#> # ℹ 137 more rows
#> # ℹ 91 more variables: ACTN4 <dbl>, ACY1 <dbl>, ADA <dbl>, ADA2 <dbl>,
#> #   ADAM15 <dbl>, ADAM23 <dbl>, ADAM8 <dbl>, ADAMTS13 <dbl>, ADAMTS15 <dbl>,
#> #   ADAMTS16 <dbl>, ADAMTS8 <dbl>, ADCYAP1R1 <dbl>, ADGRE2 <dbl>, ADGRE5 <dbl>,
#> #   ADGRG1 <dbl>, ADGRG2 <dbl>, ADH4 <dbl>, ADM <dbl>, AGER <dbl>, AGR2 <dbl>,
#> #   AGR3 <dbl>, AGRN <dbl>, AGRP <dbl>, AGXT <dbl>, AHCY <dbl>, AHSP <dbl>,
#> #   AIF1 <dbl>, AIFM1 <dbl>, AK1 <dbl>, AKR1B1 <dbl>, AKR1C4 <dbl>, …
…
#> 
#> $probability_plot
#> Warning: `label` cannot be a <ggplot2::element_blank> object.

#> 
#> $mixture
#> [1] 0.2828261
#> 
#> $features
#> # A tibble: 100 × 4
#>    Feature Importance Sign  Scaled_Importance
#>    <fct>        <dbl> <chr>             <dbl>
#>  1 ANGPT1      0.313  NEG               1    
#>  2 ADGRG1      0.245  POS               0.780
#>  3 ADA         0.185  POS               0.589
#>  4 AMIGO2      0.170  NEG               0.542
#>  5 APBB1IP     0.152  POS               0.484
#>  6 APEX1       0.137  POS               0.437
#>  7 ANGPT2      0.137  POS               0.436
#>  8 ABL1        0.124  POS               0.394
#>  9 AZU1        0.112  POS               0.356
#> 10 AHCY        0.0963 POS               0.307
#> # ℹ 90 more rows
…
# Run the multiclass regularized regression model pipeline
hd_model_rreg(hd_split,
              variable = "Disease",
              case = NULL,
              grid_size = 2,
              cv_sets = 2,
              verbose = FALSE)
#> The groups in the train set are balanced. If you do not want to balance the groups, set `balance_groups = FALSE`.
#> Warning: Too little data to stratify.
#> • Resampling will be unstratified.
#> $train_data
#> # A tibble: 439 × 102
#>    DAid    Disease AARSD1   ABL1  ACAA1   ACAN    ACE2  ACOX1    ACP5    ACP6
#>    <chr>   <fct>    <dbl>  <dbl>  <dbl>  <dbl>   <dbl>  <dbl>   <dbl>   <dbl>
#>  1 DA00003 AML      NA    NA     NA      0.989 NA       0.330  1.37   NA     
#>  2 DA00004 AML       3.41  3.38   1.69  NA      1.52   NA      0.841   0.582 
#>  3 DA00005 AML       5.01  5.05   0.128  0.401 -0.933  -0.584  0.0265  1.16  
#>  4 DA00006 AML       6.83  1.18  -1.74  -0.156  1.53   -0.721  0.620   0.527 
#>  5 DA00007 AML      NA    NA      3.96   0.682  3.14    2.62   1.47    2.25  
#>  6 DA00008 AML       2.78  0.812 -0.552  0.982 -0.101  -0.304  0.376  -0.826 
#>  7 DA00010 AML       1.83  1.21  -0.912 -1.04  -0.0918 -0.304  1.69    0.0920
#>  8 DA00011 AML       3.48  4.96   3.50  -0.338  4.48    1.26   2.18    1.62  
#>  9 DA00012 AML       4.31  0.710 -1.44  -0.218 -0.469  -0.361 -0.0714 -1.30  
#> 10 DA00013 AML       1.31  2.52   1.11   0.997  4.56   -1.35   0.833   2.33  
#> # ℹ 429 more rows
#> # ℹ 92 more variables: ACTA2 <dbl>, ACTN4 <dbl>, ACY1 <dbl>, ADA <dbl>,
#> #   ADA2 <dbl>, ADAM15 <dbl>, ADAM23 <dbl>, ADAM8 <dbl>, ADAMTS13 <dbl>,
#> #   ADAMTS15 <dbl>, ADAMTS16 <dbl>, ADAMTS8 <dbl>, ADCYAP1R1 <dbl>,
#> #   ADGRE2 <dbl>, ADGRE5 <dbl>, ADGRG1 <dbl>, ADGRG2 <dbl>, ADH4 <dbl>,
#> #   ADM <dbl>, AGER <dbl>, AGR2 <dbl>, AGR3 <dbl>, AGRN <dbl>, AGRP <dbl>,
#> #   AGXT <dbl>, AHCY <dbl>, AHSP <dbl>, AIF1 <dbl>, AIFM1 <dbl>, AK1 <dbl>, …
#> 
#> $test_data
#> # A tibble: 147 × 102
#>    DAid   Disease AARSD1  ABL1  ACAA1    ACAN  ACE2   ACOX1   ACP5    ACP6 ACTA2
#>    <chr>  <fct>    <dbl> <dbl>  <dbl>   <dbl> <dbl>   <dbl>  <dbl>   <dbl> <dbl>
#>  1 DA000… AML      3.39  2.76   1.71   0.0333 1.76  -0.919   1.54   2.15   2.81 
#>  2 DA000… AML      1.42  1.25  -0.816 -0.459  0.826 -0.902   0.647  1.30   0.798
#>  3 DA000… AML      4.39  3.34  -0.452 -0.868  0.395  1.71    1.49  -0.0285 0.200
#>  4 DA000… AML      3.31  1.90  NA     -0.926  0.408  0.687   1.03   0.612  2.19 
#>  5 DA000… AML      1.46  0.832 -2.73  -0.371  2.27   0.0234  0.144  0.826  1.98 
#>  6 DA000… AML      2.62  2.48   0.537 -0.215  1.82   0.290   1.27   1.11   0.206
#>  7 DA000… AML      2.47  2.16  -0.486 NA      0.386 NA       1.38   0.536  1.86 
#>  8 DA000… AML      3.62  3.06  -1.34   0.965  1.05   1.53    0.152 -0.124  2.81 
#>  9 DA000… AML      4.39  3.31   0.454  0.290  2.68   0.116  -1.32   0.945  2.14 
#> 10 DA000… AML      0.964 2.94   1.55   1.67   2.50   0.164   1.83   1.46   3.03 
#> # ℹ 137 more rows
#> # ℹ 91 more variables: ACTN4 <dbl>, ACY1 <dbl>, ADA <dbl>, ADA2 <dbl>,
#> #   ADAM15 <dbl>, ADAM23 <dbl>, ADAM8 <dbl>, ADAMTS13 <dbl>, ADAMTS15 <dbl>,
#> #   ADAMTS16 <dbl>, ADAMTS8 <dbl>, ADCYAP1R1 <dbl>, ADGRE2 <dbl>, ADGRE5 <dbl>,
#> #   ADGRG1 <dbl>, ADGRG2 <dbl>, ADH4 <dbl>, ADM <dbl>, AGER <dbl>, AGR2 <dbl>,
#> #   AGR3 <dbl>, AGRN <dbl>, AGRP <dbl>, AGXT <dbl>, AHCY <dbl>, AHSP <dbl>,
#> #   AIF1 <dbl>, AIFM1 <dbl>, AK1 <dbl>, AKR1B1 <dbl>, AKR1C4 <dbl>, …
…
#> 
#> $probability_plot
#> Warning: `label` cannot be a <ggplot2::element_blank> object.

#> 
#> $mixture
#> [1] 0.220185
#> 
#> $features
#> # A tibble: 1,200 × 5
#>    Class Feature  Importance Sign  Scaled_Importance
#>    <chr> <chr>         <dbl> <chr>             <dbl>
#>  1 AML   AHCY           2.96 POS               1    
#>  2 AML   ANGPT1         2.61 NEG               0.883
#>  3 AML   AK1            2.06 NEG               0.695
#>  4 AML   APEX1          1.97 POS               0.666
#>  5 AML   ADAM8          1.92 NEG               0.648
#>  6 AML   ARTN           1.76 POS               0.594
#>  7 AML   ARID4B         1.61 NEG               0.545
#>  8 AML   ADAMTS16       1.47 NEG               0.497
#>  9 AML   ALPP           1.43 NEG               0.483
#> 10 AML   ADGRG1         1.32 POS               0.447
#> # ℹ 1,190 more rows
…
