…
# Split the data into training and test sets
hd_split <- hd_split_data(hd_object, variable = "Disease")
#> Warning: Too little data to stratify.
#> • Resampling will be unstratified.

# Run the random forest model pipeline
hd_model_rf(hd_split,
            variable = "Disease",
            case = "AML",
            grid_size = 5,
            palette = "cancers12",
            verbose = FALSE)
#> The groups in the train set are balanced. If you do not want to balance the groups, set `balance_groups = FALSE`.
#> $train_data
#> # A tibble: 76 × 102
#>    DAid    Disease AARSD1   ABL1  ACAA1   ACAN    ACE2  ACOX1    ACP5    ACP6
#>    <chr>   <fct>    <dbl>  <dbl>  <dbl>  <dbl>   <dbl>  <dbl>   <dbl>   <dbl>
#>  1 DA00003 1        NA    NA     NA      0.989 NA       0.330  1.37   NA     
#>  2 DA00004 1         3.41  3.38   1.69  NA      1.52   NA      0.841   0.582 
#>  3 DA00005 1         5.01  5.05   0.128  0.401 -0.933  -0.584  0.0265  1.16  
#>  4 DA00006 1         6.83  1.18  -1.74  -0.156  1.53   -0.721  0.620   0.527 
#>  5 DA00007 1        NA    NA      3.96   0.682  3.14    2.62   1.47    2.25  
#>  6 DA00008 1         2.78  0.812 -0.552  0.982 -0.101  -0.304  0.376  -0.826 
#>  7 DA00010 1         1.83  1.21  -0.912 -1.04  -0.0918 -0.304  1.69    0.0920
#>  8 DA00011 1         3.48  4.96   3.50  -0.338  4.48    1.26   2.18    1.62  
#>  9 DA00012 1         4.31  0.710 -1.44  -0.218 -0.469  -0.361 -0.0714 -1.30  
#> 10 DA00013 1         1.31  2.52   1.11   0.997  4.56   -1.35   0.833   2.33  
#> # ℹ 66 more rows
#> # ℹ 92 more variables: ACTA2 <dbl>, ACTN4 <dbl>, ACY1 <dbl>, ADA <dbl>,
#> #   ADA2 <dbl>, ADAM15 <dbl>, ADAM23 <dbl>, ADAM8 <dbl>, ADAMTS13 <dbl>,
#> #   ADAMTS15 <dbl>, ADAMTS16 <dbl>, ADAMTS8 <dbl>, ADCYAP1R1 <dbl>,
#> #   ADGRE2 <dbl>, ADGRE5 <dbl>, ADGRG1 <dbl>, ADGRG2 <dbl>, ADH4 <dbl>,
#> #   ADM <dbl>, AGER <dbl>, AGR2 <dbl>, AGR3 <dbl>, AGRN <dbl>, AGRP <dbl>,
#> #   AGXT <dbl>, AHCY <dbl>, AHSP <dbl>, AIF1 <dbl>, AIFM1 <dbl>, AK1 <dbl>, …
#> 
#> $test_data
#> # A tibble: 147 × 102
#>    DAid   Disease AARSD1  ABL1  ACAA1    ACAN  ACE2   ACOX1   ACP5    ACP6 ACTA2
#>    <chr>  <fct>    <dbl> <dbl>  <dbl>   <dbl> <dbl>   <dbl>  <dbl>   <dbl> <dbl>
#>  1 DA000… 1        3.39  2.76   1.71   0.0333 1.76  -0.919   1.54   2.15   2.81 
#>  2 DA000… 1        1.42  1.25  -0.816 -0.459  0.826 -0.902   0.647  1.30   0.798
#>  3 DA000… 1        4.39  3.34  -0.452 -0.868  0.395  1.71    1.49  -0.0285 0.200
#>  4 DA000… 1        3.31  1.90  NA     -0.926  0.408  0.687   1.03   0.612  2.19 
#>  5 DA000… 1        1.46  0.832 -2.73  -0.371  2.27   0.0234  0.144  0.826  1.98 
#>  6 DA000… 1        2.62  2.48   0.537 -0.215  1.82   0.290   1.27   1.11   0.206
#>  7 DA000… 1        2.47  2.16  -0.486 NA      0.386 NA       1.38   0.536  1.86 
#>  8 DA000… 1        3.62  3.06  -1.34   0.965  1.05   1.53    0.152 -0.124  2.81 
#>  9 DA000… 1        4.39  3.31   0.454  0.290  2.68   0.116  -1.32   0.945  2.14 
#> 10 DA000… 1        0.964 2.94   1.55   1.67   2.50   0.164   1.83   1.46   3.03 
#> # ℹ 137 more rows
#> # ℹ 91 more variables: ACTN4 <dbl>, ACY1 <dbl>, ADA <dbl>, ADA2 <dbl>,
#> #   ADAM15 <dbl>, ADAM23 <dbl>, ADAM8 <dbl>, ADAMTS13 <dbl>, ADAMTS15 <dbl>,
#> #   ADAMTS16 <dbl>, ADAMTS8 <dbl>, ADCYAP1R1 <dbl>, ADGRE2 <dbl>, ADGRE5 <dbl>,
#> #   ADGRG1 <dbl>, ADGRG2 <dbl>, ADH4 <dbl>, ADM <dbl>, AGER <dbl>, AGR2 <dbl>,
#> #   AGR3 <dbl>, AGRN <dbl>, AGRP <dbl>, AGXT <dbl>, AHCY <dbl>, AHSP <dbl>,
#> #   AIF1 <dbl>, AIFM1 <dbl>, AK1 <dbl>, AKR1B1 <dbl>, AKR1C4 <dbl>, …
…
#> 
#> $probability_plot
#> Warning: `label` cannot be a <ggplot2::element_blank> object.

#> 
#> $features
#> # A tibble: 100 × 4
#>    Feature Importance Sign  Scaled_Importance
#>    <fct>        <dbl> <chr>             <dbl>
#>  1 APBB1IP    0.0502  POS              1     
#>  2 ADA        0.0364  POS              0.725 
#>  3 AZU1       0.0162  POS              0.322 
#>  4 ADGRG1     0.0140  POS              0.279 
#>  5 APEX1      0.0124  POS              0.246 
#>  6 ANGPT1     0.0108  POS              0.214 
#>  7 ANXA3      0.00608 POS              0.121 
#>  8 ABL1       0.00342 POS              0.0681
#>  9 ANGPT2     0.00295 POS              0.0587
#> 10 AIF1       0.00283 POS              0.0564
#> # ℹ 90 more rows
…
# Run the multiclass random forest model pipeline
hd_model_rf(hd_split,
            variable = "Disease",
            case = NULL,
            grid_size = 2,
            cv_sets = 2,
            verbose = FALSE)
#> The groups in the train set are balanced. If you do not want to balance the groups, set `balance_groups = FALSE`.
#> Warning: Too little data to stratify.
#> • Resampling will be unstratified.
#> $train_data
#> # A tibble: 439 × 102
#>    DAid    Disease AARSD1   ABL1  ACAA1   ACAN    ACE2  ACOX1    ACP5    ACP6
#>    <chr>   <fct>    <dbl>  <dbl>  <dbl>  <dbl>   <dbl>  <dbl>   <dbl>   <dbl>
#>  1 DA00003 AML      NA    NA     NA      0.989 NA       0.330  1.37   NA     
#>  2 DA00004 AML       3.41  3.38   1.69  NA      1.52   NA      0.841   0.582 
#>  3 DA00005 AML       5.01  5.05   0.128  0.401 -0.933  -0.584  0.0265  1.16  
#>  4 DA00006 AML       6.83  1.18  -1.74  -0.156  1.53   -0.721  0.620   0.527 
#>  5 DA00007 AML      NA    NA      3.96   0.682  3.14    2.62   1.47    2.25  
#>  6 DA00008 AML       2.78  0.812 -0.552  0.982 -0.101  -0.304  0.376  -0.826 
#>  7 DA00010 AML       1.83  1.21  -0.912 -1.04  -0.0918 -0.304  1.69    0.0920
#>  8 DA00011 AML       3.48  4.96   3.50  -0.338  4.48    1.26   2.18    1.62  
#>  9 DA00012 AML       4.31  0.710 -1.44  -0.218 -0.469  -0.361 -0.0714 -1.30  
#> 10 DA00013 AML       1.31  2.52   1.11   0.997  4.56   -1.35   0.833   2.33  
#> # ℹ 429 more rows
#> # ℹ 92 more variables: ACTA2 <dbl>, ACTN4 <dbl>, ACY1 <dbl>, ADA <dbl>,
#> #   ADA2 <dbl>, ADAM15 <dbl>, ADAM23 <dbl>, ADAM8 <dbl>, ADAMTS13 <dbl>,
#> #   ADAMTS15 <dbl>, ADAMTS16 <dbl>, ADAMTS8 <dbl>, ADCYAP1R1 <dbl>,
#> #   ADGRE2 <dbl>, ADGRE5 <dbl>, ADGRG1 <dbl>, ADGRG2 <dbl>, ADH4 <dbl>,
#> #   ADM <dbl>, AGER <dbl>, AGR2 <dbl>, AGR3 <dbl>, AGRN <dbl>, AGRP <dbl>,
#> #   AGXT <dbl>, AHCY <dbl>, AHSP <dbl>, AIF1 <dbl>, AIFM1 <dbl>, AK1 <dbl>, …
#> 
#> $test_data
#> # A tibble: 147 × 102
#>    DAid   Disease AARSD1  ABL1  ACAA1    ACAN  ACE2   ACOX1   ACP5    ACP6 ACTA2
#>    <chr>  <fct>    <dbl> <dbl>  <dbl>   <dbl> <dbl>   <dbl>  <dbl>   <dbl> <dbl>
#>  1 DA000… AML      3.39  2.76   1.71   0.0333 1.76  -0.919   1.54   2.15   2.81 
#>  2 DA000… AML      1.42  1.25  -0.816 -0.459  0.826 -0.902   0.647  1.30   0.798
#>  3 DA000… AML      4.39  3.34  -0.452 -0.868  0.395  1.71    1.49  -0.0285 0.200
#>  4 DA000… AML      3.31  1.90  NA     -0.926  0.408  0.687   1.03   0.612  2.19 
#>  5 DA000… AML      1.46  0.832 -2.73  -0.371  2.27   0.0234  0.144  0.826  1.98 
#>  6 DA000… AML      2.62  2.48   0.537 -0.215  1.82   0.290   1.27   1.11   0.206
#>  7 DA000… AML      2.47  2.16  -0.486 NA      0.386 NA       1.38   0.536  1.86 
#>  8 DA000… AML      3.62  3.06  -1.34   0.965  1.05   1.53    0.152 -0.124  2.81 
#>  9 DA000… AML      4.39  3.31   0.454  0.290  2.68   0.116  -1.32   0.945  2.14 
#> 10 DA000… AML      0.964 2.94   1.55   1.67   2.50   0.164   1.83   1.46   3.03 
#> # ℹ 137 more rows
#> # ℹ 91 more variables: ACTN4 <dbl>, ACY1 <dbl>, ADA <dbl>, ADA2 <dbl>,
#> #   ADAM15 <dbl>, ADAM23 <dbl>, ADAM8 <dbl>, ADAMTS13 <dbl>, ADAMTS15 <dbl>,
#> #   ADAMTS16 <dbl>, ADAMTS8 <dbl>, ADCYAP1R1 <dbl>, ADGRE2 <dbl>, ADGRE5 <dbl>,
#> #   ADGRG1 <dbl>, ADGRG2 <dbl>, ADH4 <dbl>, ADM <dbl>, AGER <dbl>, AGR2 <dbl>,
#> #   AGR3 <dbl>, AGRN <dbl>, AGRP <dbl>, AGXT <dbl>, AHCY <dbl>, AHSP <dbl>,
#> #   AIF1 <dbl>, AIFM1 <dbl>, AK1 <dbl>, AKR1B1 <dbl>, AKR1C4 <dbl>, …
…
#> 
#> $probability_plot
#> Warning: `label` cannot be a <ggplot2::element_blank> object.

#> 
#> $features
#> # A tibble: 100 × 4
#>    Feature  Importance Sign  Scaled_Importance
#>    <fct>         <dbl> <chr>             <dbl>
#>  1 APEX1       0.0177  POS               1    
#>  2 ARID4B      0.00908 POS               0.514
#>  3 ARTN        0.00719 POS               0.407
#>  4 ADA         0.00589 POS               0.333
#>  5 AZU1        0.00565 POS               0.320
#>  6 ALPP        0.00468 POS               0.265
#>  7 AHCY        0.00374 POS               0.212
#>  8 ARHGAP25    0.00293 POS               0.166
#>  9 ADGRG2      0.00263 POS               0.149
#> 10 ADGRE5      0.00252 POS               0.143
#> # ℹ 90 more rows
…
# Run the random forest model pipeline
hd_model_rf(hd_split,
            variable = "Age",
            case = NULL,
            grid_size = 2,
            cv_sets = 2,
            plot_title = c("rmse",
                           "rsq",
                           "features"),
            verbose = FALSE)
#> The groups in the train set are balanced. If you do not want to balance the groups, set `balance_groups = FALSE`.
#> $train_data
#> # A tibble: 438 × 102
#>    DAid      Age AARSD1       ABL1   ACAA1   ACAN  ACE2   ACOX1   ACP5     ACP6
#>    <chr>   <dbl>  <dbl>      <dbl>   <dbl>  <dbl> <dbl>   <dbl>  <dbl>    <dbl>
#>  1 DA00011    54   3.48  4.96       3.50   -0.338 4.48   1.26    2.18   1.62   
#>  2 DA00015    47   3.31  1.90      NA      -0.926 0.408  0.687   1.03   0.612  
#>  3 DA00017    44   1.46  0.832     -2.73   -0.371 2.27   0.0234  0.144  0.826  
#>  4 DA00023    42   2.92 -0.0000706  0.602   1.59  0.198  1.61    0.283  2.35   
#>  5 DA00024    46   1.92  0.257      0.0587  1.44  1.29   0.503   0.463  1.01   
#>  6 DA00026    44   4.92  1.89       0.560   0.558 2.39   0.455   0.743 -0.955  
#>  7 DA00036    54   1.54  1.07      -1.49   -0.171 0.553 -0.144  -0.240  0.00582
#>  8 DA00037    54   3.65  3.30       0.748   0.571 1.20   1.30    2.09   0.717  
#>  9 DA00049    40   4.48  4.56       4.86    0.230 2.24   2.97    2.60  -1.11   
#> 10 DA00062    48   2.67  0.540      1.97    0.363 0.455  1.77    0.624  1.12   
#> # ℹ 428 more rows
#> # ℹ 92 more variables: ACTA2 <dbl>, ACTN4 <dbl>, ACY1 <dbl>, ADA <dbl>,
#> #   ADA2 <dbl>, ADAM15 <dbl>, ADAM23 <dbl>, ADAM8 <dbl>, ADAMTS13 <dbl>,
#> #   ADAMTS15 <dbl>, ADAMTS16 <dbl>, ADAMTS8 <dbl>, ADCYAP1R1 <dbl>,
#> #   ADGRE2 <dbl>, ADGRE5 <dbl>, ADGRG1 <dbl>, ADGRG2 <dbl>, ADH4 <dbl>,
#> #   ADM <dbl>, AGER <dbl>, AGR2 <dbl>, AGR3 <dbl>, AGRN <dbl>, AGRP <dbl>,
#> #   AGXT <dbl>, AHCY <dbl>, AHSP <dbl>, AIF1 <dbl>, AIFM1 <dbl>, AK1 <dbl>, …
#> 
#> $test_data
#> # A tibble: 148 × 102
#>    DAid    Age AARSD1  ABL1  ACAA1    ACAN    ACE2   ACOX1    ACP5    ACP6 ACTA2
#>    <chr> <dbl>  <dbl> <dbl>  <dbl>   <dbl>   <dbl>   <dbl>   <dbl>   <dbl> <dbl>
#>  1 DA00…    42   3.39 2.76   1.71   0.0333  1.76   -0.919   1.54    2.15   2.81 
#>  2 DA00…    69   1.42 1.25  -0.816 -0.459   0.826  -0.902   0.647   1.30   0.798
#>  3 DA00…    54   3.41 3.38   1.69  NA       1.52   NA       0.841   0.582  1.70 
#>  4 DA00…    57   5.01 5.05   0.128  0.401  -0.933  -0.584   0.0265  1.16   2.73 
#>  5 DA00…    86   6.83 1.18  -1.74  -0.156   1.53   -0.721   0.620   0.527  0.772
#>  6 DA00…    48   1.83 1.21  -0.912 -1.04   -0.0918 -0.304   1.69    0.0920 2.04 
#>  7 DA00…    78   4.31 0.710 -1.44  -0.218  -0.469  -0.361  -0.0714 -1.30   2.86 
#>  8 DA00…    75   2.62 2.48   0.537 -0.215   1.82    0.290   1.27    1.11   0.206
#>  9 DA00…    65   1.80 1.70   2.77  -1.04    1.33   -0.0247  1.02    0.112  2.58 
#> 10 DA00…    67   6.28 6.57   1.62   0.650   0.392   0.113   1.09    1.07   2.07 
#> # ℹ 138 more rows
#> # ℹ 91 more variables: ACTN4 <dbl>, ACY1 <dbl>, ADA <dbl>, ADA2 <dbl>,
#> #   ADAM15 <dbl>, ADAM23 <dbl>, ADAM8 <dbl>, ADAMTS13 <dbl>, ADAMTS15 <dbl>,
#> #   ADAMTS16 <dbl>, ADAMTS8 <dbl>, ADCYAP1R1 <dbl>, ADGRE2 <dbl>, ADGRE5 <dbl>,
#> #   ADGRG1 <dbl>, ADGRG2 <dbl>, ADH4 <dbl>, ADM <dbl>, AGER <dbl>, AGR2 <dbl>,
#> #   AGR3 <dbl>, AGRN <dbl>, AGRP <dbl>, AGXT <dbl>, AHCY <dbl>, AHSP <dbl>,
#> #   AIF1 <dbl>, AIFM1 <dbl>, AK1 <dbl>, AKR1B1 <dbl>, AKR1C4 <dbl>, …
…
#> 
#> $features
#> # A tibble: 100 × 4
#>    Feature Importance Sign  Scaled_Importance
#>    <fct>        <dbl> <chr>             <dbl>
#>  1 ALCAM        1.78  POS               1    
#>  2 ADAMTS8      1.21  POS               0.680
#>  3 ADAM15       1.14  POS               0.641
#>  4 ADM          0.948 POS               0.532
#>  5 AREG         0.843 POS               0.473
#>  6 ARID4B       0.770 POS               0.432
#>  7 ADAM23       0.692 POS               0.388
#>  8 AOC3         0.605 POS               0.339
#>  9 ALDH3A1      0.597 POS               0.335
#> 10 APEX1        0.558 POS               0.313
#> # ℹ 90 more rows
…
