Plot summary visualizations for the differential expression results — hd_plot_de_summary • HDAnalyzeR
…
#> 
#> $proteins_df_up
#> # A tibble: 65 × 3
#>    Shared_in      `up/down` Feature
#>    <chr>          <chr>     <chr>  
#>  1 CLL            up        AARSD1 
#>  2 AML&CLL&MYEL   up        ABL1   
#>  3 CLL            up        ACAN   
#>  4 AML&MYEL&GLIOM up        ACE2   
#>  5 MYEL           up        ACOX1  
#>  6 GLIOM          up        ACP5   
#>  7 CLL&MYEL       up        ACP6   
#>  8 AML&MYEL       up        ACTA2  
#>  9 GLIOM          up        ACY1   
#> 10 AML            up        ADA    
#> # ℹ 55 more rows
#> 
#> $proteins_df_down
#> # A tibble: 29 × 3
#>    Shared_in   `up/down` Feature 
#>    <chr>       <chr>     <chr>   
#>  1 AML         up        ACAN    
#>  2 GLIOM       up        ADAM15  
#>  3 GLIOM       up        ADAM23  
#>  4 GLIOM       up        ADAM8   
#>  5 AML         up        ADAMTS13
#>  6 GLIOM       up        ADAMTS15
#>  7 AML         up        ADAMTS16
#>  8 GLIOM       up        ADAMTS8 
#>  9 GLIOM       up        ADGRE2  
#> 10 LUNGC&GLIOM up        ADGRE5  
#> # ℹ 19 more rows
…
