Summarize model features — hd_plot_model_summary • HDAnalyzeR
…
#> 
#> $features_df
#> # A tibble: 100 × 3
#>    Shared_in                `up/down` Feature
#>    <chr>                    <chr>     <chr>  
#>  1 AML&LUNGC&CLL&MYEL&GLIOM up        AARSD1 
#>  2 AML&LUNGC&CLL&MYEL&GLIOM up        ABL1   
#>  3 AML&LUNGC&CLL&MYEL&GLIOM up        ACAA1  
#>  4 AML&LUNGC&CLL&MYEL&GLIOM up        ACAN   
#>  5 AML&LUNGC&CLL&MYEL&GLIOM up        ACE2   
#>  6 AML&LUNGC&CLL&MYEL&GLIOM up        ACOX1  
#>  7 AML&LUNGC&CLL&MYEL&GLIOM up        ACP5   
#>  8 AML&LUNGC&CLL&MYEL&GLIOM up        ACP6   
#>  9 AML&LUNGC&CLL&MYEL&GLIOM up        ACTA2  
#> 10 AML&LUNGC&CLL&MYEL&GLIOM up        ACTN4  
#> # ℹ 90 more rows
…
