…
#> 
#> $upset_plot_up

#> 
#> $upset_plot_down

#> 
#> $proteins_df_up
#> # A tibble: 61 × 3
#>    Shared_in `up/down` Feature
#>    <chr>     <chr>     <chr>  
#>  1 CLL       up        AARSD1 
#>  2 CLL       up        ABL1   
#>  3 CLL       up        ACAN   
#>  4 GLIOM     up        ACE2   
#>  5 GLIOM     up        ACP5   
#>  6 CLL&MYEL  up        ACP6   
#>  7 MYEL      up        ACTA2  
#>  8 GLIOM     up        ACY1   
#>  9 AML       up        ADA    
#> 10 CLL&MYEL  up        ADA2   
#> # ℹ 51 more rows
#> 
#> $proteins_df_down
#> # A tibble: 51 × 3
#>    Shared_in `up/down` Feature
#>    <chr>     <chr>     <chr>  
#>  1 GLIOM     up        ABL1   
#>  2 AML       up        ACAN   
#>  3 CLL       up        ACE2   
#>  4 AML       up        ACP6   
#>  5 LUNGC     up        ACY1   
#>  6 LUNGC     up        ADA    
#>  7 GLIOM     up        ADA2   
#>  8 GLIOM     up        ADAM15 
#>  9 GLIOM     up        ADAM23 
#> 10 GLIOM     up        ADAM8  
#> # ℹ 41 more rows
…
