…
# Plot summary visualizations
hd_plot_model_summary(res, class_palette = "cancers12")
#> $features_barplot

#> 
#> $metrics_barplot
#> Ignoring unknown labels:
#> • colour : "Metric"

#> 
#> $upset_plot_features

#> 
#> $features_df
#> # A tibble: 100 × 3
#>    Shared_in                `up/down` Feature 
#>    <chr>                    <chr>     <fct>   
#>  1 AML&LUNGC&CLL&MYEL&GLIOM up        ACAA1   
#>  2 AML&LUNGC&CLL&MYEL&GLIOM up        ACE2    
#>  3 AML&LUNGC&CLL&MYEL&GLIOM up        ACOX1   
#>  4 AML&LUNGC&CLL&MYEL&GLIOM up        ACP5    
#>  5 AML&LUNGC&CLL&MYEL&GLIOM up        ACTN4   
#>  6 AML&LUNGC&CLL&MYEL&GLIOM up        ACY1    
#>  7 AML&LUNGC&CLL&MYEL&GLIOM up        ADA2    
#>  8 AML&LUNGC&CLL&MYEL&GLIOM up        ADAM23  
#>  9 AML&LUNGC&CLL&MYEL&GLIOM up        ADAMTS13
#> 10 AML&LUNGC&CLL&MYEL&GLIOM up        ADAMTS15
#> # ℹ 90 more rows
…
