Summarize the quality control results of the input dataset — hd_run_qc_summary • HDAnalyzeR
…
    Examples

# Create the HDAnalyzeR object providing the data and metadata
hd_object <- hd_initialize(example_data,
                           example_metadata |> dplyr::select(-Sample))

# Run the quality control summary
hd_run_qc_summary(hd_object,
                  variable = "Disease",
                  palette = list(Disease = "cancers12", Sex = "sex"),
                  cor_threshold = 0.7,
                  verbose = FALSE)
#> $data_summary
#> $data_summary$na_percentage_col
#> # A tibble: 91 × 2
#>    column   na_percentage
#>    <chr>            <dbl>
#>  1 ACE2               6.1
#>  2 ACTA2              6.1
#>  3 ACTN4              6.1
#>  4 ADAM15             6.1
#>  5 ADAMTS16           6.1
#>  6 ADH4               6.1
#>  7 AKR1C4             6.1
#>  8 AMBN               6.1
#>  9 AMN                6.1
#> 10 AOC1               6.1
#> # ℹ 81 more rows
…
#> 
#> $data_summary$na_percentage_row
#> # A tibble: 144 × 2
#>    DAid    na_percentage
#>    <chr>           <dbl>
#>  1 DA00450          57.4
#>  2 DA00482          53.5
#>  3 DA00542          53.5
#>  4 DA00003          50.5
#>  5 DA00463          46.5
#>  6 DA00116          43.6
#>  7 DA00475          42.6
#>  8 DA00578          42.6
#>  9 DA00443          41.6
#> 10 DA00476          35.6
#> # ℹ 134 more rows
…
#> 
#> $metadata_summary$na_percentage_row
#> # A tibble: 536 × 2
#>    DAid    na_percentage
#>    <chr>           <dbl>
#>  1 DA00001          12.5
#>  2 DA00002          12.5
#>  3 DA00003          12.5
#>  4 DA00004          12.5
#>  5 DA00005          12.5
#>  6 DA00006          12.5
#>  7 DA00007          12.5
#>  8 DA00008          12.5
#>  9 DA00009          12.5
#> 10 DA00010          12.5
#> # ℹ 526 more rows
…
